logic-capture.vcd
$version Generated by Wokwi.com $end
$date Thu, 30 Apr 2026 17:08:22 GMT $end
$timescale 1ns $end
$scope module logic $end
$var wire 1 ! D0 $end
$var wire 1 " D1 $end
$var wire 1 # D2 $end
$var wire 1 $ D3 $end
$upscope $end
$enddefinitions $end
#0
#131376625
0"
#131376625
1"
#131376625
0"
#131376625
1"
#131387131
0$
#131387131
1$
#131387131
0$
#132134300
0!
#132134300
0"
#132134300
1#
#132134550
0#
#132134800
1"
#132134800
1#
#132135050
0#
#132135300
0"
#132135300
1#
#132135550
0#
#132135800
1#
#132136050
0#
#132136300
1"
#132136300
1#
#132136550
0#
#132136800
0"
#132136800
1#
#132137050
0#
#132137300
1#
#132137550
0#
#132137800
1#
#132138050
0#
#132138300
1!
#132138300
1$
#1124406056
0!
#1124406056
0$
#1124406056
1#
#1124406306
0#
#1124406556
1"
#1124406556
1#
#1124406806
0#
#1124407056
0"
#1124407056
1#
#1124407306
0#
#1124407556
1#
#1124407806
0#
#1124408056
1"
#1124408056
1#
#1124408306
0#
#1124408556
0"
#1124408556
1#
#1124408806
0#
#1124409056
1#
#1124409306
0#
#1124409556
1#
#1124409806
0#
#1124410056
1!
#1124410056
1$
#2124406056
0!
#2124406056
0$
#2124406056
1#
#2124406306
0#
#2124406556
1"
#2124406556
1#
#2124406806
0#
#2124407056
0"
#2124407056
1#
#2124407306
0#
#2124407556
1#
#2124407806
0#
#2124408056
1"
#2124408056
1#
#2124408306
0#
#2124408556
0"
#2124408556
1#
#2124408806
0#
#2124409056
1#
#2124409306
0#
#2124409556
1#
#2124409806
0#
#2124410056
1!
#2124410056
1$
#3124406056
0!
#3124406056
0$
#3124406056
1#
#3124406306
0#
#3124406556
1"
#3124406556
1#
#3124406806
0#
#3124407056
0"
#3124407056
1#
#3124407306
0#
#3124407556
1#
#3124407806
0#
#3124408056
1"
#3124408056
1#
#3124408306
0#
#3124408556
0"
#3124408556
1#
#3124408806
0#
#3124409056
1#
#3124409306
0#
#3124409556
1#
#3124409806
0#
#3124410056
1!
#3124410056
1$
#4124406056
0!
#4124406056
0$
#4124406056
1#
#4124406306
0#
#4124406556
1"
#4124406556
1#
#4124406806
0#
#4124407056
0"
#4124407056
1#
#4124407306
0#
#4124407556
1#
#4124407806
0#
#4124408056
1"
#4124408056
1#
#4124408306
0#
#4124408556
0"
#4124408556
1#
#4124408806
0#
#4124409056
1#
#4124409306
0#
#4124409556
1#
#4124409806
0#
#4124410056
1!
#4124410056
1$
#5124406056
0!
#5124406056
0$
#5124406056
1#
#5124406306
0#
#5124406556
1"
#5124406556
1#
#5124406806
0#
#5124407056
0"
#5124407056
1#
#5124407306
0#
#5124407556
1#
#5124407806
0#
#5124408056
1"
#5124408056
1#
#5124408306
0#
#5124408556
0"
#5124408556
1#
#5124408806
0#
#5124409056
1#
#5124409306
0#
#5124409556
1#
#5124409806
0#
#5124410056
1!
#5124410056
1$
#6124406056
0!
#6124406056
0$
#6124406056
1#
#6124406306
0#
#6124406556
1"
#6124406556
1#
#6124406806
0#
#6124407056
0"
#6124407056
1#
#6124407306
0#
#6124407556
1#
#6124407806
0#
#6124408056
1"
#6124408056
1#
#6124408306
0#
#6124408556
0"
#6124408556
1#
#6124408806
0#
#6124409056
1#
#6124409306
0#
#6124409556
1#
#6124409806
0#
#6124410056
1!
#6124410056
1$
#7124406056
0!
#7124406056
0$
#7124406056
1#
#7124406306
0#
#7124406556
1"
#7124406556
1#
#7124406806
0#
#7124407056
0"
#7124407056
1#
#7124407306
0#
#7124407556
1#
#7124407806
0#
#7124408056
1"
#7124408056
1#
#7124408306
0#
#7124408556
0"
#7124408556
1#
#7124408806
0#
#7124409056
1#
#7124409306
0#
#7124409556
1#
#7124409806
0#
#7124410056
1!
#7124410056
1$
#8124406056
0!
#8124406056
0$
#8124406056
1#
#8124406306
0#
#8124406556
1"
#8124406556
1#
#8124406806
0#
#8124407056
0"
#8124407056
1#
#8124407306
0#
#8124407556
1#
#8124407806
0#
#8124408056
1"
#8124408056
1#
#8124408306
0#
#8124408556
0"
#8124408556
1#
#8124408806
0#
#8124409056
1#
#8124409306
0#
#8124409556
1#
#8124409806
0#
#8124410056
1!
#8124410056
1$
#9124406069
0!
#9124406069
0$
#9124406069
1#
#9124406319
0#
#9124406569
1"
#9124406569
1#
#9124406819
0#
#9124407069
0"
#9124407069
1#
#9124407319
0#
#9124407569
1#
#9124407819
0#
#9124408069
1"
#9124408069
1#
#9124408319
0#
#9124408569
0"
#9124408569
1#
#9124408819
0#
#9124409069
1#
#9124409319
0#
#9124409569
1#
#9124409819
0#
#9124410069
1!
#10124406069
0!
#10124406069
1#
#10124406319
0#
#10124406569
1"
#10124406569
1#
#10124406819
0#
#10124407069
0"
#10124407069
1#
#10124407319
0#
#10124407569
1#
#10124407819
0#
#10124408069
1"
#10124408069
1#
#10124408319
0#
#10124408569
0"
#10124408569
1#
#10124408819
0#
#10124409069
1#
#10124409319
0#
#10124409569
1#
#10124409819
0#
#10124410069
1!
#11124406056
0!
#11124406056
1#
#11124406306
0#
#11124406556
1"
#11124406556
1#
#11124406806
0#
#11124407056
0"
#11124407056
1#
#11124407306
0#
#11124407556
1#
#11124407806
0#
#11124408056
1"
#11124408056
1#
#11124408306
0#
#11124408556
0"
#11124408556
1#
#11124408806
0#
#11124409056
1#
#11124409306
0#
#11124409556
1#
#11124409806
0#
#11124410056
1!
#12124406056
0!
#12124406056
1#
#12124406306
0#
#12124406556
1"
#12124406556
1#
#12124406806
0#
#12124407056
0"
#12124407056
1#
#12124407306
0#
#12124407556
1#
#12124407806
0#
#12124408056
1"
#12124408056
1#
#12124408306
0#
#12124408556
0"
#12124408556
1#
#12124408806
0#
#12124409056
1#
#12124409306
0#
#12124409556
1#
#12124409806
0#
#12124410056
1!
#12124410056
1$
#13124406056
0!
#13124406056
0$
#13124406056
1#
#13124406306
0#
#13124406556
1"
#13124406556
1#
#13124406806
0#
#13124407056
0"
#13124407056
1#
#13124407306
0#
#13124407556
1#
#13124407806
0#
#13124408056
1"
#13124408056
1#
#13124408306
0#
#13124408556
0"
#13124408556
1#
#13124408806
0#
#13124409056
1#
#13124409306
0#
#13124409556
1#
#13124409806
0#
#13124410056
1!
#14124406056
0!
#14124406056
1#
#14124406306
0#
#14124406556
1"
#14124406556
1#
#14124406806
0#
#14124407056
0"
#14124407056
1#
#14124407306
0#
#14124407556
1#
#14124407806
0#
#14124408056
1"
#14124408056
1#
#14124408306
0#
#14124408556
0"
#14124408556
1#
#14124408806
0#
#14124409056
1#
#14124409306
0#
#14124409556
1#
#14124409806
0#
#14124410056
1!
#15124406056
0!
#15124406056
1#
#15124406306
0#
#15124406556
1"
#15124406556
1#
#15124406806
0#
#15124407056
0"
#15124407056
1#
#15124407306
0#
#15124407556
1#
#15124407806
0#
#15124408056
1"
#15124408056
1#
#15124408306
0#
#15124408556
0"
#15124408556
1#
#15124408806
0#
#15124409056
1#
#15124409306
0#
#15124409556
1#
#15124409806
0#
#15124410056
1!
#16124406056
0!
#16124406056
1#
#16124406306
0#
#16124406556
1"
#16124406556
1#
#16124406806
0#
#16124407056
0"
#16124407056
1#
#16124407306
0#
#16124407556
1#
#16124407806
0#
#16124408056
1"
#16124408056
1#
#16124408306
0#
#16124408556
0"
#16124408556
1#
#16124408806
0#
#16124409056
1#
#16124409306
0#
#16124409556
1#
#16124409806
0#
#16124410056
1!
#16124410056
1$
#16646789875
1!
